{
   "pages": [
	{
		"id": 1,
		"movementsMadeModels": [
		{
			 "amount": "410",
			 "afectacion": "Abono",
			 "authorization": "000999",
			 "accountNumber": "000001",
			 "tranferConcept": "Transferencia",
			 "transacctionId": "000000001",
			 "transacctionType": "WT04",
			 "transacctionDescription": "Viaje",
			 "date": "2020-10-5"
		},
		{
			 "amount": "550",
			 "afectacion": "Abono",
			 "authorization": "000999",
			 "accountNumber": "000001",
			 "tranferConcept": "SPEI",
			 "transacctionId": "000000002",
			 "transacctionType": "WT04",
			 "transacctionDescription": "Deposito",
			 "date": "2020-10-6"
		},
		{
			 "amount": "30",
			 "afectacion": "Cargo",
			 "authorization": "000999",
			 "accountNumber": "000001",
			 "tranferConcept": "Compras",
			 "transacctionId": "000000003",
			 "transacctionType": "WT02",
			 "transacctionDescription": "Compra Café",
			 "date": "2020-10-7"
		},
		{
			 "amount": "150",
			 "afectacion": "Cargo",
			 "authorization": "000001",
			 "accountNumber": "000999",
			 "tranferConcept": "SPEI",
			 "transacctionId": "000000004",
			 "transacctionType": "WT03",
			 "transacctionDescription": "Pago Luz",
			 "date": "2020-10-8"
		},
		{
			 "amount": "50",
			 "afectacion": "Cargo",
			 "authorization": "000999",
			 "accountNumber": "000001",
			 "tranferConcept": "Pago",
			 "transacctionId": "000000005",
			 "transacctionType": "WT01",
			 "transacctionDescription": "Loxxo",
			 "date": "2020-10-9"
		}
		],
	    "footer": {
			"pageNumber": 1,
			"totalPages": 3,
			"totalRecords": 15
	    }
	},
	{
		"id": 2,
		"movementsMadeModels": [
			{
				 "amount": "500",
				 "afectacion": "Abono",
				 "authorization": "000999",
				 "accountNumber": "000001",
				 "tranferConcept": "Compras",
				 "transacctionId": "000000006",
				 "transacctionType": "WT04",
				 "transacctionDescription": "Salida Dinero",
				 "date": "2020-10-10"
			},
			{
				 "amount": "50",
				 "afectacion": "Abono",
				 "authorization": "000999",
				 "accountNumber": "000001",
				 "tranferConcept": "Compras",
				 "transacctionId": "000000007",
				 "transacctionType": "WT04",
				 "transacctionDescription": "deposito",
				 "date": "2020-10-10"
			},
			{
				 "amount": "1000",
				 "afectacion": "Cargo",
				 "authorization": "000999",
				 "accountNumber": "000001",
				 "tranferConcept": "Compras",
				 "transacctionId": "000000008",
				 "transacctionType": "WT02",
				 "transacctionDescription": "Compra Nike",
				 "date": "2020-10-11"
			},
			{
				 "amount": "90",
				 "afectacion": "Cargo",
				 "authorization": "000001",
				 "accountNumber": "000999",
				 "tranferConcept": "SPEI",
				 "transacctionId": "000000009",
				 "transacctionType": "WT03",
				 "transacctionDescription": "Pago Serv. Agua",
				 "date": "2020-10-12"
			},
			{
				 "amount": "550",
				 "afectacion": "Abono",
				 "authorization": "000999",
				 "accountNumber": "000001",
				 "tranferConcept": "Pago",
				 "transacctionId": "000000010",
				 "transacctionType": "WT01",
				 "transacctionDescription": "Salida de dinero",
				 "date": "2020-10-13"
			}
		],
		"footer": {
			"pageNumber": 2,
			"totalPages": 3,
			"totalRecords": 15
		}
	},
	{
		"id": 3,
		"movementsMadeModels": [
			{
			 "amount": "2000",
			 "afectacion": "Cargo",
			 "authorization": "000999",
			 "accountNumber": "000001",
			 "tranferConcept": "Compras",
			 "transacctionId": "000000011",
			 "transacctionType": "WT04",
			 "transacctionDescription": "Liverpool",
			 "date": "2020-10-14"
			},
			{
				 "amount": "1500",
				 "afectacion": "Abono",
				 "authorization": "000999",
				 "accountNumber": "000001",
				 "tranferConcept": "deposito",
				 "transacctionId": "000000012",
				 "transacctionType": "WT04",
				 "transacctionDescription": "deposito",
				 "date": "2020-10-15"
			},
			{
				 "amount": "850",
				 "afectacion": "Cargo",
				 "authorization": "000999",
				 "accountNumber": "000001",
				 "tranferConcept": "Compras",
				 "transacctionId": "000000013",
				 "transacctionType": "WT02",
				 "transacctionDescription": "Compra en Línea",
				 "date": "2020-10-16"
			},
			{
				 "amount": "1050",
				 "afectacion": "Abono",
				 "authorization": "000001",
				 "accountNumber": "000999",
				 "tranferConcept": "SPEI",
				 "transacctionId": "000000014",
				 "transacctionType": "WT03",
				 "transacctionDescription": "Depósito",
				 "date": "2020-10-18"
			},
			{
				 "amount": "100",
				 "afectacion": "Cargo",
				 "authorization": "000999",
				 "accountNumber": "000001",
				 "tranferConcept": "Pago",
				 "transacctionId": "000000015",
				 "transacctionType": "WT01",
				 "transacctionDescription": "Seven Eleven",
				 "date": "2020-10-21"
			}
		],
		"footer": {
			"pageNumber": 3,
			"totalPages": 3,
			"totalRecords": 15
		}
	}
]
}