{
   "movementsMadeModels": [
      {
         "amount": "2000",
         "afectacion": "Cargo",
         "authorization": "000999",
         "accountNumber": "000001",
         "tranferConcept": "Compras",
         "transacctionId": "000000011",
         "transacctionType": "WT04",
         "transacctionDescription": "Liverpool",
         "date": "2020-10-14"
      },
      {
         "amount": "1500",
         "afectacion": "Abono",
         "authorization": "000999",
         "accountNumber": "000001",
         "tranferConcept": "deposito",
         "transacctionId": "000000012",
         "transacctionType": "WT04",
         "transacctionDescription": "deposito",
         "date": "2020-10-15"
      },
      {
         "amount": "850",
         "afectacion": "Cargo",
         "authorization": "000999",
         "accountNumber": "000001",
         "tranferConcept": "Compras",
         "transacctionId": "000000013",
         "transacctionType": "WT02",
         "transacctionDescription": "Compra en Línea",
         "date": "2020-10-16"
      },
      {
         "amount": "1050",
         "afectacion": "Abono",
         "authorization": "000001",
         "accountNumber": "000999",
         "tranferConcept": "SPEI",
         "transacctionId": "000000014",
         "transacctionType": "WT03",
         "transacctionDescription": "Depósito",
         "date": "2020-10-18"
      },
      {
         "amount": "100",
         "afectacion": "Cargo",
         "authorization": "000999",
         "accountNumber": "000001",
         "tranferConcept": "Pago",
         "transacctionId": "000000015",
         "transacctionType": "WT01",
         "transacctionDescription": "Seven Eleven",
         "date": "2020-10-21"
      }
   ],
   "footer": {
      "pageNumber": 3,
      "totalPages": 3,
      "totalRecords": 15
   }
}